sim/transcript
# do run.do
# Model Technology ModelSim SE-64 vlog 10.6 Compiler 2016.12 Dec 13 2016
# Start time: 00:07:07 on Apr 10,2024
# vlog -sv ../src/asynchronous_fifo.sv ../src/fifo_mem.sv ../src/rptr_handler.sv ../src/wptr_handler.sv ../src/synchronizer.sv 
# -- Compiling module synchronizer
# -- Compiling module wptr_handler
# -- Compiling module rptr_handler
# -- Compiling module fifo_mem
# -- Compiling module asynchronous_fifo
# ** Warning: ../src/fifo_mem.sv(1): (vlog-2275) 'fifo_mem' already exists and will be overwritten.
# -- Compiling module fifo_mem
# ** Warning: ../src/rptr_handler.sv(1): (vlog-2275) 'rptr_handler' already exists and will be overwritten.
# -- Compiling module rptr_handler
# ** Warning: ../src/wptr_handler.sv(1): (vlog-2275) 'wptr_handler' already exists and will be overwritten.
# -- Compiling module wptr_handler
# ** Warning: ../src/synchronizer.sv(1): (vlog-2275) 'synchronizer' already exists and will be overwritten.
# -- Compiling module synchronizer
# 
# Top level modules:
# 	asynchronous_fifo
# End time: 00:07:07 on Apr 10,2024, Elapsed time: 0:00:00
# Errors: 0, Warnings: 4
# Model Technology ModelSim SE-64 vlog 10.6 Compiler 2016.12 Dec 13 2016
# Start time: 00:07:07 on Apr 10,2024
# vlog "+cover" -sv ../tb/async_fifo_tb.sv 
# -- Compiling module async_fifo_TB
# 
# Top level modules:
# 	async_fifo_TB
# End time: 00:07:07 on Apr 10,2024, Elapsed time: 0:00:00
# Errors: 0, Warnings: 0
# vsim -coverage -c async_fifo_TB 
# Start time: 00:07:07 on Apr 10,2024
# ** Note: (vsim-3812) Design is being optimized...
# //  ModelSim SE-64 10.6 Dec 13 2016Linux 4.18.0-513.18.1.el8_9.x86_64
# //
# //  Copyright 1991-2016 Mentor Graphics Corporation
# //  All Rights Reserved.
# //
# //  ModelSim SE-64 and its associated documentation contain trade
# //  secrets and commercial or financial information that are the property of
# //  Mentor Graphics Corporation and are privileged, confidential,
# //  and exempt from disclosure under the Freedom of Information Act,
# //  5 U.S.C. Section 552. Furthermore, this information
# //  is prohibited from disclosure under the Trade Secrets Act,
# //  18 U.S.C. Section 1905.
# //
# Loading sv_std.std
# Loading work.async_fifo_TB(fast)
# Loading work.asynchronous_fifo(fast)
# Time = 1715: Comparison Passed: wr_data = xx and rd_data = xx
# Time = 1855: Comparison Passed: wr_data = 72 and rd_data = 72
# Time = 1995: Comparison Passed: wr_data = b2 and rd_data = b2
# Time = 2135: Comparison Passed: wr_data = 10 and rd_data = 10
# Time = 2275: Comparison Passed: wr_data = 30 and rd_data = 30
# Time = 2415: Comparison Passed: wr_data = b5 and rd_data = b5
# Time = 2555: Comparison Passed: wr_data = b6 and rd_data = b6
# Time = 2695: Comparison Passed: wr_data = 14 and rd_data = 14
# Time = 2835: Comparison Passed: wr_data = df and rd_data = df
# Time = 2975: Comparison Passed: wr_data = bb and rd_data = bb
# Time = 3115: Comparison Passed: wr_data = eb and rd_data = eb
# Time = 3255: Comparison Passed: wr_data = 41 and rd_data = 41
# Time = 3395: Comparison Passed: wr_data = 40 and rd_data = 40
# Time = 3535: Comparison Passed: wr_data = 8a and rd_data = 8a
# Time = 3675: Comparison Passed: wr_data = 03 and rd_data = 03
# Time = 3815: Comparison Passed: wr_data = fc and rd_data = fc
# Time = 3955: Comparison Passed: wr_data = 5d and rd_data = 5d
# Time = 4095: Comparison Passed: wr_data = 1d and rd_data = 1d
# Time = 4235: Comparison Passed: wr_data = 6a and rd_data = 6a
# Time = 4375: Comparison Passed: wr_data = 16 and rd_data = 16
# Time = 4515: Comparison Passed: wr_data = 3f and rd_data = 3f
# Time = 4655: Comparison Passed: wr_data = 23 and rd_data = 23
# Time = 4795: Comparison Passed: wr_data = a8 and rd_data = a8
# Time = 4935: Comparison Passed: wr_data = 90 and rd_data = 90
# Time = 5075: Comparison Passed: wr_data = 25 and rd_data = 25
# Time = 5215: Comparison Passed: wr_data = 82 and rd_data = 82
# Time = 5355: Comparison Passed: wr_data = 5b and rd_data = 5b
# Time = 5495: Comparison Passed: wr_data = f2 and rd_data = f2
# Time = 5635: Comparison Passed: wr_data = 31 and rd_data = 31
# Time = 5775: Comparison Passed: wr_data = cd and rd_data = cd
# ** Note: $finish    : ../tb/async_fifo_tb.sv(65)
#    Time: 5825 ns  Iteration: 0  Instance: /async_fifo_TB
# End time: 00:07:08 on Apr 10,2024, Elapsed time: 0:00:01
# Errors: 0, Warnings: 0
